{
    "defaultSeverity": "error",
    "extends": "tslint-config-airbnb",
    "jsRules": {},
    "rules": {
      "prettier": [true, "configs"],
  
      "space-before-function-paren": false,
      "ter-arrow-parens": false,
      "align": false,
  
      "max-line-length": [true, { "limit": 120, "ignore-pattern": "^import" }],
      "import-name": false,
      "variable-name": false
    },
    "rulesDirectory": [
      "tslint-plugin-prettier"
    ]
  }
  